<?xml version="1.0" encoding="UTF-8" standalone="no"?>
<!-- Created with Inkscape (http://www.inkscape.org/) -->
<svg
   xmlns:dc="http://purl.org/dc/elements/1.1/"
   xmlns:cc="http://web.resource.org/cc/"
   xmlns:rdf="http://www.w3.org/1999/02/22-rdf-syntax-ns#"
   xmlns:svg="http://www.w3.org/2000/svg"
   xmlns="http://www.w3.org/2000/svg"
   xmlns:xlink="http://www.w3.org/1999/xlink"
   xmlns:sodipodi="http://sodipodi.sourceforge.net/DTD/sodipodi-0.dtd"
   xmlns:inkscape="http://www.inkscape.org/namespaces/inkscape"
   width="268.80688"
   height="268.80688"
   id="svg2166"
   sodipodi:version="0.32"
   inkscape:version="0.45.1"
   sodipodi:docbase="/home/nyall/Artwork/GCStar"
   sodipodi:docname="lend.svg"
   inkscape:output_extension="org.inkscape.output.svg.inkscape"
   version="1.0"
   inkscape:export-filename="/home/nyall/Sources/gcstar/share/gcstar/overlays/lend_xlarge.png"
   inkscape:export-xdpi="16.071016"
   inkscape:export-ydpi="16.071016">
  <defs
     id="defs2168">
    <linearGradient
       inkscape:collect="always"
       id="linearGradient8075">
      <stop
         style="stop-color:#fe0f01;stop-opacity:1;"
         offset="0"
         id="stop8077" />
      <stop
         style="stop-color:#fe0f01;stop-opacity:0;"
         offset="1"
         id="stop8079" />
    </linearGradient>
    <linearGradient
       id="linearGradient3149">
      <stop
         style="stop-color:#fe0f01;stop-opacity:1;"
         offset="0"
         id="stop3151" />
      <stop
         id="stop8073"
         offset="0.55555558"
         style="stop-color:#fe0f01;stop-opacity:1;" />
      <stop
         style="stop-color:#f1a914;stop-opacity:1;"
         offset="1"
         id="stop3153" />
    </linearGradient>
    <radialGradient
       inkscape:collect="always"
       xlink:href="#linearGradient3149"
       id="radialGradient8069"
       cx="405.71429"
       cy="519.60297"
       fx="405.71429"
       fy="519.60297"
       r="141.8956"
       gradientUnits="userSpaceOnUse"
       gradientTransform="matrix(1.2484376,0,0,1.4670635,-100.79469,-242.68758)" />
    <linearGradient
       inkscape:collect="always"
       xlink:href="#linearGradient8075"
       id="linearGradient8081"
       x1="318.69309"
       y1="455.77996"
       x2="435.17653"
       y2="455.77996"
       gradientUnits="userSpaceOnUse"
       gradientTransform="matrix(0.7833516,0,0,0.7833516,81.662326,98.744004)" />
    <filter
       inkscape:collect="always"
       id="filter8089">
      <feGaussianBlur
         inkscape:collect="always"
         stdDeviation="8.2586537"
         id="feGaussianBlur8091" />
    </filter>
  </defs>
  <sodipodi:namedview
     id="base"
     pagecolor="#ffffff"
     bordercolor="#666666"
     borderopacity="1.0"
     gridtolerance="10000"
     guidetolerance="10"
     objecttolerance="10"
     inkscape:pageopacity="0.0"
     inkscape:pageshadow="2"
     inkscape:zoom="0.9449163"
     inkscape:cx="108.08466"
     inkscape:cy="155.9156"
     inkscape:document-units="px"
     inkscape:current-layer="layer1"
     inkscape:window-width="872"
     inkscape:window-height="662"
     inkscape:window-x="0"
     inkscape:window-y="25"
     showguides="true"
     inkscape:guide-bbox="true" />
  <metadata
     id="metadata2171">
    <rdf:RDF>
      <cc:Work
         rdf:about="">
        <dc:format>image/svg+xml</dc:format>
        <dc:type
           rdf:resource="http://purl.org/dc/dcmitype/StillImage" />
      </cc:Work>
    </rdf:RDF>
  </metadata>
  <g
     inkscape:label="Layer 1"
     inkscape:groupmode="layer"
     id="layer1"
     transform="translate(-242.53137,-321.37652)">
    <path
       sodipodi:type="arc"
       style="opacity:1;fill:#ff00ff;fill-opacity:1;stroke:#ffffff;stroke-width:79.9450511;stroke-linecap:round;stroke-linejoin:round;stroke-miterlimit:4;stroke-dasharray:none;stroke-opacity:1;filter:url(#filter8089)"
       id="path3179"
       sodipodi:cx="405.71429"
       sodipodi:cy="418.07648"
       sodipodi:rx="128.57143"
       sodipodi:ry="128.57143"
       d="M 534.28572 418.07648 A 128.57143 128.57143 0 1 1  277.14287,418.07648 A 128.57143 128.57143 0 1 1  534.28572 418.07648 z"
       transform="matrix(0.7505155,0,0,0.7505155,72.439943,142.00709)" />
    <path
       sodipodi:type="arc"
       style="opacity:1;fill:#fe0f01;fill-opacity:1;stroke:#c90606;stroke-width:26.64834976;stroke-linecap:round;stroke-linejoin:round;stroke-miterlimit:4;stroke-dasharray:none;stroke-opacity:1"
       id="path3146"
       sodipodi:cx="405.71429"
       sodipodi:cy="418.07648"
       sodipodi:rx="128.57143"
       sodipodi:ry="128.57143"
       d="M 534.28572 418.07648 A 128.57143 128.57143 0 1 1  277.14287,418.07648 A 128.57143 128.57143 0 1 1  534.28572 418.07648 z"
       transform="matrix(0.7505155,0,0,0.7505155,72.43994,142.00709)" />
    <path
       sodipodi:type="arc"
       style="opacity:0.57454545;fill:url(#radialGradient8069);fill-opacity:1.0;stroke:#c90606;stroke-width:26.64834976;stroke-linecap:round;stroke-linejoin:round;stroke-miterlimit:4;stroke-dasharray:none;stroke-opacity:1"
       id="path2176"
       sodipodi:cx="405.71429"
       sodipodi:cy="418.07648"
       sodipodi:rx="128.57143"
       sodipodi:ry="128.57143"
       d="M 534.28572 418.07648 A 128.57143 128.57143 0 1 1  277.14287,418.07648 A 128.57143 128.57143 0 1 1  534.28572 418.07648 z"
       transform="matrix(0.7505155,0,0,0.7505155,72.439943,142.00709)" />
    <path
       style="fill:url(#linearGradient8081);fill-rule:evenodd;stroke:#ffffff;stroke-width:27.7439785;stroke-linecap:butt;stroke-linejoin:miter;stroke-miterlimit:4;stroke-dasharray:none;stroke-opacity:1"
       d="M 415.12139,493.96655 L 338.74823,417.59339"
       id="path3157" />
    <path
       style="fill:none;fill-rule:evenodd;stroke:#ffffff;stroke-width:27.7439785;stroke-linecap:butt;stroke-linejoin:miter;stroke-miterlimit:4;stroke-dasharray:none;stroke-opacity:1"
       d="M 415.12139,417.59339 L 338.74823,493.96655"
       id="path3159" />
    <path
       sodipodi:type="arc"
       style="opacity:0.58545455;fill:none;fill-opacity:1;stroke:#ffb101;stroke-width:26.64834976;stroke-linecap:round;stroke-linejoin:round;stroke-miterlimit:4;stroke-dasharray:none;stroke-opacity:0.38805971"
       id="path8085"
       sodipodi:cx="405.71429"
       sodipodi:cy="418.07648"
       sodipodi:rx="128.57143"
       sodipodi:ry="128.57143"
       d="M 534.28572 418.07648 A 128.57143 128.57143 0 1 1  277.14287,418.07648 A 128.57143 128.57143 0 1 1  534.28572 418.07648 z"
       transform="matrix(0.7063482,0,0,0.6940014,90.35926,173.57152)" />
    <path
       sodipodi:type="arc"
       style="opacity:1;fill:none;fill-opacity:1.0;stroke:#c90606;stroke-width:26.64834976;stroke-linecap:round;stroke-linejoin:round;stroke-miterlimit:4;stroke-dasharray:none;stroke-opacity:1"
       id="path8083"
       sodipodi:cx="405.71429"
       sodipodi:cy="418.07648"
       sodipodi:rx="128.57143"
       sodipodi:ry="128.57143"
       d="M 534.28572 418.07648 A 128.57143 128.57143 0 1 1  277.14287,418.07648 A 128.57143 128.57143 0 1 1  534.28572 418.07648 z"
       transform="matrix(0.7505155,0,0,0.7505155,72.43994,142.00709)" />
  </g>
</svg>
